SOLAMAC Workshop - Spatial Analysis and Mapping in R
…
## Parsed with column specification:
## cols(
##   Index = col_integer(),
##   LineLabel = col_character(),
##   Date = col_character(),
##   LatD_Beg = col_double(),
##   LongD_Beg = col_double(),
##   LatD_End = col_double(),
##   LongD_End = col_double(),
##   Length = col_double()
## )

realized_effort

## # A tibble: 83 x 8
##    Index LineLabel Date   LatD_Beg LongD_Beg LatD_End LongD_End Length
##    <int> <chr>     <chr>     <dbl>     <dbl>    <dbl>     <dbl>  <dbl>
##  1     1 E 25      17.dez    -19.6     -39.7    -19.5     -39.8   12.4
##  2     2 E 26      17.dez    -19.6     -39.8    -19.6     -39.7   11.6
##  3     3 E 27      17.dez    -19.7     -39.7    -19.6     -39.8   10.9
##  4     4 E24       5.jan     -19.5     -39.7    -19.6     -39.6   14.0
##  5     5 ES 07b    8.jan     -18.8     -39.4    -18.6     -39.7   40.5
##  6     6 ES 01     <NA>      -18.4     -39.5    -18.3     -39.7   16.8
##  7     7 ES 02     <NA>      -18.4     -39.7    -18.5     -39.5   19.2
##  8     8 ES 03     <NA>      -18.6     -39.3    -18.4     -39.7   45.2
##  9     9 ES 04     <NA>      -18.5     -39.7    -18.7     -39.3   48.4
## 10    10 ES 05     <NA>      -18.8     -39.3    -18.5     -39.7   50.9
## # ... with 73 more rows
…
The first step is to use the tidyr::gather() function to make our data frame less
wide. We are going to gather the information in the four coordinate columns into
two new columns label, and coordinate.

realized_effort <- realized_effort %>% 
  gather(key = label, value = coordinate, LatD_Beg, LatD_End, LongD_Beg, LongD_End) %>% 
  tidyr::separate(label,c("longlat","beginend"),"_") %>% 
  dplyr::mutate(longlat = ifelse(longlat == "LatD","latitude","longitude"),
                beginend = ifelse(beginend == "Beg","begin","end")) %>% 
  dplyr::arrange(Index, LineLabel, Date)

realized_effort

## # A tibble: 332 x 7
##    Index LineLabel Date   Length longlat   beginend coordinate
##    <int> <chr>     <chr>   <dbl> <chr>     <chr>         <dbl>
##  1     1 E 25      17.dez   12.4 latitude  begin         -19.6
##  2     1 E 25      17.dez   12.4 latitude  end           -19.5
##  3     1 E 25      17.dez   12.4 longitude begin         -39.7
##  4     1 E 25      17.dez   12.4 longitude end           -39.8
##  5     2 E 26      17.dez   11.6 latitude  begin         -19.6
##  6     2 E 26      17.dez   11.6 latitude  end           -19.6
##  7     2 E 26      17.dez   11.6 longitude begin         -39.8
##  8     2 E 26      17.dez   11.6 longitude end           -39.7
##  9     3 E 27      17.dez   10.9 latitude  begin         -19.7
## 10     3 E 27      17.dez   10.9 latitude  end           -19.6
## # ... with 322 more rows
…
realized_effort

## Simple feature collection with 83 features and 3 fields
## geometry type:  LINESTRING
## dimension:      XY
## bbox:           xmin: 1756252 ymin: 987612.3 xmax: 2072998 ymax: 1453614
## epsg (SRID):    102033
## proj4string:    +proj=aea +lat_1=-5 +lat_2=-42 +lat_0=-32 +lon_0=-60 +x_0=0 +y_0=0 +ellps=aust_SA +units=m +no_defs
## # A tibble: 83 x 4
## # Groups:   Index, LineLabel [83]
##    Index LineLabel Date                             geometry
##    <int> <chr>     <chr>                    <LINESTRING [m]>
##  1     1 E 25      17.dez (2026994 1310557, 2018202 1318937)
##  2     2 E 26      17.dez (2015704 1314816, 2023879 1306793)
##  3     3 E 27      17.dez (2021027 1302856, 2013277 1310332)
##  4     4 E24       5.jan  (2020236 1323208, 2030377 1313936)
##  5     5 ES 07b    8.jan  (2063877 1396062, 2035041 1423532)
##  6     6 ES 01     <NA>   (2057211 1441935, 2045444 1453614)
##  7     7 ES 02     <NA>   (2043101 1449889, 2056611 1436693)
##  8     8 ES 03     <NA>   (2072599 1414326, 2041625 1446426)
##  9     9 ES 04     <NA>   (2038434 1439969, 2072996 1407222)
## 10    10 ES 05     <NA>   (2072998 1400390, 2036802 1434932)
## # ... with 73 more rows
…
